%YAML 1.1
%TAG !u! tag:unity3d.com,2011:
--- !u!1 &7871151361028564330
GameObject:
  m_ObjectHideFlags: 0
  m_CorrespondingSourceObject: {fileID: 0}
  m_PrefabInstance: {fileID: 0}
  m_PrefabAsset: {fileID: 0}
  serializedVersion: 6
  m_Component:
  - component: {fileID: 7871151361028564328}
  - component: {fileID: 7871151361028564329}
  m_Layer: 8
  m_Name: Snake
  m_TagString: Snake
  m_Icon: {fileID: 0}
  m_NavMeshLayer: 0
  m_StaticEditorFlags: 0
  m_IsActive: 1
--- !u!4 &7871151361028564328
Transform:
  m_ObjectHideFlags: 0
  m_CorrespondingSourceObject: {fileID: 0}
  m_PrefabInstance: {fileID: 0}
  m_PrefabAsset: {fileID: 0}
  m_GameObject: {fileID: 7871151361028564330}
  m_LocalRotation: {x: 0, y: 0, z: 0, w: 1}
  m_LocalPosition: {x: 0, y: 0, z: 0}
  m_LocalScale: {x: 1, y: 1, z: 1}
  m_Children:
  - {fileID: 7871151361710765972}
  m_Father: {fileID: 0}
  m_RootOrder: 0
  m_LocalEulerAnglesHint: {x: 0, y: 0, z: 0}
--- !u!114 &7871151361028564329
MonoBehaviour:
  m_ObjectHideFlags: 0
  m_CorrespondingSourceObject: {fileID: 0}
  m_PrefabInstance: {fileID: 0}
  m_PrefabAsset: {fileID: 0}
  m_GameObject: {fileID: 7871151361028564330}
  m_Enabled: 1
  m_EditorHideFlags: 0
  m_Script: {fileID: 11500000, guid: ca8eee919e43d0a40bab705250b9d48a, type: 3}
  m_Name: 
  m_EditorClassIdentifier: 
  snakeSettings:
    head: {fileID: 7871151361710765972}
    minDistance: 2
    speed: 10
    rotationSpeed: 50
    snakeBody: {fileID: 8471031830752635238, guid: b0448dd4ac23a2441a58acfbef7ec9f4,
      type: 3}
    beginSize: 8
    floatingJoystick: {fileID: 0}
--- !u!1001 &1780281829661843187
PrefabInstance:
  m_ObjectHideFlags: 0
  serializedVersion: 2
  m_Modification:
    m_TransformParent: {fileID: 7871151361028564328}
    m_Modifications:
    - target: {fileID: 8471031830752635238, guid: b0448dd4ac23a2441a58acfbef7ec9f4,
        type: 3}
      propertyPath: m_Name
      value: Head
      objectReference: {fileID: 0}
    - target: {fileID: 8471031830752635238, guid: b0448dd4ac23a2441a58acfbef7ec9f4,
        type: 3}
      propertyPath: m_IsActive
      value: 1
      objectReference: {fileID: 0}
    - target: {fileID: 8471031830752635239, guid: b0448dd4ac23a2441a58acfbef7ec9f4,
        type: 3}
      propertyPath: m_LocalPosition.x
      value: 0
      objectReference: {fileID: 0}
    - target: {fileID: 8471031830752635239, guid: b0448dd4ac23a2441a58acfbef7ec9f4,
        type: 3}
      propertyPath: m_LocalPosition.y
      value: 0.4
      objectReference: {fileID: 0}
    - target: {fileID: 8471031830752635239, guid: b0448dd4ac23a2441a58acfbef7ec9f4,
        type: 3}
      propertyPath: m_LocalPosition.z
      value: 0
      objectReference: {fileID: 0}
    - target: {fileID: 8471031830752635239, guid: b0448dd4ac23a2441a58acfbef7ec9f4,
        type: 3}
      propertyPath: m_LocalRotation.x
      value: -0
      objectReference: {fileID: 0}
    - target: {fileID: 8471031830752635239, guid: b0448dd4ac23a2441a58acfbef7ec9f4,
        type: 3}
      propertyPath: m_LocalRotation.y
      value: -0
      objectReference: {fileID: 0}
    - target: {fileID: 8471031830752635239, guid: b0448dd4ac23a2441a58acfbef7ec9f4,
        type: 3}
      propertyPath: m_LocalRotation.z
      value: -0
      objectReference: {fileID: 0}
    - target: {fileID: 8471031830752635239, guid: b0448dd4ac23a2441a58acfbef7ec9f4,
        type: 3}
      propertyPath: m_LocalRotation.w
      value: 1
      objectReference: {fileID: 0}
    - target: {fileID: 8471031830752635239, guid: b0448dd4ac23a2441a58acfbef7ec9f4,
        type: 3}
      propertyPath: m_RootOrder
      value: 0
      objectReference: {fileID: 0}
    - target: {fileID: 8471031830752635239, guid: b0448dd4ac23a2441a58acfbef7ec9f4,
        type: 3}
      propertyPath: m_LocalEulerAnglesHint.x
      value: 0
      objectReference: {fileID: 0}
    - target: {fileID: 8471031830752635239, guid: b0448dd4ac23a2441a58acfbef7ec9f4,
        type: 3}
      propertyPath: m_LocalEulerAnglesHint.y
      value: 0
      objectReference: {fileID: 0}
    - target: {fileID: 8471031830752635239, guid: b0448dd4ac23a2441a58acfbef7ec9f4,
        type: 3}
      propertyPath: m_LocalEulerAnglesHint.z
      value: 0
      objectReference: {fileID: 0}
    - target: {fileID: 8471031830752635233, guid: b0448dd4ac23a2441a58acfbef7ec9f4,
        type: 3}
      propertyPath: m_Materials.Array.data[0]
      value: 
      objectReference: {fileID: 2100000, guid: fd67263d714055d448668c5e20252433, type: 2}
    - target: {fileID: 8471031830752635233, guid: b0448dd4ac23a2441a58acfbef7ec9f4,
        type: 3}
      propertyPath: m_Enabled
      value: 0
      objectReference: {fileID: 0}
    m_RemovedComponents: []
  m_SourcePrefab: {fileID: 100100000, guid: b0448dd4ac23a2441a58acfbef7ec9f4, type: 3}
--- !u!4 &7871151361710765972 stripped
Transform:
  m_CorrespondingSourceObject: {fileID: 8471031830752635239, guid: b0448dd4ac23a2441a58acfbef7ec9f4,
    type: 3}
  m_PrefabInstance: {fileID: 1780281829661843187}
  m_PrefabAsset: {fileID: 0}
--- !u!1001 &2536388498467073915
PrefabInstance:
  m_ObjectHideFlags: 0
  serializedVersion: 2
  m_Modification:
    m_TransformParent: {fileID: 7871151361710765972}
    m_Modifications:
    - target: {fileID: 100106, guid: 9a70f4d7ee800421ab3cc8d04c613a02, type: 3}
      propertyPath: m_Name
      value: Snake
      objectReference: {fileID: 0}
    - target: {fileID: 400106, guid: 9a70f4d7ee800421ab3cc8d04c613a02, type: 3}
      propertyPath: m_LocalPosition.x
      value: 0
      objectReference: {fileID: 0}
    - target: {fileID: 400106, guid: 9a70f4d7ee800421ab3cc8d04c613a02, type: 3}
      propertyPath: m_LocalPosition.y
      value: -0.4
      objectReference: {fileID: 0}
    - target: {fileID: 400106, guid: 9a70f4d7ee800421ab3cc8d04c613a02, type: 3}
      propertyPath: m_LocalPosition.z
      value: -10.74
      objectReference: {fileID: 0}
    - target: {fileID: 400106, guid: 9a70f4d7ee800421ab3cc8d04c613a02, type: 3}
      propertyPath: m_LocalRotation.x
      value: -0
      objectReference: {fileID: 0}
    - target: {fileID: 400106, guid: 9a70f4d7ee800421ab3cc8d04c613a02, type: 3}
      propertyPath: m_LocalRotation.y
      value: -0
      objectReference: {fileID: 0}
    - target: {fileID: 400106, guid: 9a70f4d7ee800421ab3cc8d04c613a02, type: 3}
      propertyPath: m_LocalRotation.z
      value: -0
      objectReference: {fileID: 0}
    - target: {fileID: 400106, guid: 9a70f4d7ee800421ab3cc8d04c613a02, type: 3}
      propertyPath: m_LocalRotation.w
      value: 1
      objectReference: {fileID: 0}
    - target: {fileID: 400106, guid: 9a70f4d7ee800421ab3cc8d04c613a02, type: 3}
      propertyPath: m_RootOrder
      value: 0
      objectReference: {fileID: 0}
    - target: {fileID: 400106, guid: 9a70f4d7ee800421ab3cc8d04c613a02, type: 3}
      propertyPath: m_LocalEulerAnglesHint.x
      value: 0
      objectReference: {fileID: 0}
    - target: {fileID: 400106, guid: 9a70f4d7ee800421ab3cc8d04c613a02, type: 3}
      propertyPath: m_LocalEulerAnglesHint.y
      value: 0
      objectReference: {fileID: 0}
    - target: {fileID: 400106, guid: 9a70f4d7ee800421ab3cc8d04c613a02, type: 3}
      propertyPath: m_LocalEulerAnglesHint.z
      value: 0
      objectReference: {fileID: 0}
    - target: {fileID: 400106, guid: 9a70f4d7ee800421ab3cc8d04c613a02, type: 3}
      propertyPath: m_LocalScale.x
      value: 100
      objectReference: {fileID: 0}
    - target: {fileID: 400106, guid: 9a70f4d7ee800421ab3cc8d04c613a02, type: 3}
      propertyPath: m_LocalScale.y
      value: 100
      objectReference: {fileID: 0}
    - target: {fileID: 400106, guid: 9a70f4d7ee800421ab3cc8d04c613a02, type: 3}
      propertyPath: m_LocalScale.z
      value: 100
      objectReference: {fileID: 0}
    m_RemovedComponents: []
  m_SourcePrefab: {fileID: 100100000, guid: 9a70f4d7ee800421ab3cc8d04c613a02, type: 3}
